{
	"car": "",
	"start": "06:00",
	"way_points": [
		{
			"name": "Точка1",
			"lng": 37.890953561279,
			"lat": 51.321529551954,
			"pause": 10
		},
		{
			"name": "Точка2",
			"lng": 37.838081857178,
			"lat": 51.300012070858,
			"pause": 10
		},
		{
			"name": "Точка3",
			"lng": 37.898849984619,
			"lat": 51.314967795293,
			"pause": 10
		},
		{
			"name": "Точка4",
			"lng": 37.836880227539,
			"lat": 51.293124334492,
			"pause": 10
		},
		{
			"name": "Точка5",
			"lng": 37.903484841797,
			"lat": 51.310018961297,
			"pause": 10
		},
		{
			"name": "Точка6",
			"lng": 37.838382264587,
			"lat": 51.296783573781,
			"pause": 10
		}
	]
}
